<?xml version="1.0" encoding="UTF-8"?>
<svg xmlns="http://www.w3.org/2000/svg" xmlns:xlink="http://www.w3.org/1999/xlink" width="350pt" height="155pt" viewBox="0 0 350 155" version="1.1">
<g id="surface2924">
<path style=" stroke:none;fill-rule:evenodd;fill:rgb(0%,0%,0%);fill-opacity:1;" d="M 55.390625 52.644531 C 55.390625 48.980469 49.894531 48.980469 49.894531 52.644531 C 49.894531 56.304688 55.390625 56.304688 55.390625 52.644531 Z M 55.390625 52.644531 "/>
<path style=" stroke:none;fill-rule:evenodd;fill:rgb(0%,0%,0%);fill-opacity:1;" d="M 153.046875 52.644531 C 153.046875 48.980469 147.550781 48.980469 147.550781 52.644531 C 147.550781 56.304688 153.046875 56.304688 153.046875 52.644531 Z M 153.046875 52.644531 "/>
<path style=" stroke:none;fill-rule:evenodd;fill:rgb(0%,0%,0%);fill-opacity:1;" d="M 250.703125 52.644531 C 250.703125 48.980469 245.207031 48.980469 245.207031 52.644531 C 245.207031 56.304688 250.703125 56.304688 250.703125 52.644531 Z M 250.703125 52.644531 "/>
<path style=" stroke:none;fill-rule:evenodd;fill:rgb(0%,0%,0%);fill-opacity:1;" d="M 323.945312 101.472656 C 323.945312 97.808594 318.449219 97.808594 318.449219 101.472656 C 318.449219 105.132812 323.945312 105.132812 323.945312 101.472656 Z M 323.945312 101.472656 "/>
<path style=" stroke:none;fill-rule:evenodd;fill:rgb(0%,0%,0%);fill-opacity:1;" d="M 275.117188 101.472656 C 275.117188 97.808594 269.621094 97.808594 269.621094 101.472656 C 269.621094 105.132812 275.117188 105.132812 275.117188 101.472656 Z M 275.117188 101.472656 "/>
<path style=" stroke:none;fill-rule:evenodd;fill:rgb(0%,0%,0%);fill-opacity:1;" d="M 226.289062 101.472656 C 226.289062 97.808594 220.792969 97.808594 220.792969 101.472656 C 220.792969 105.132812 226.289062 105.132812 226.289062 101.472656 Z M 226.289062 101.472656 "/>
<path style=" stroke:none;fill-rule:evenodd;fill:rgb(0%,0%,0%);fill-opacity:1;" d="M 177.460938 101.472656 C 177.460938 97.808594 171.964844 97.808594 171.964844 101.472656 C 171.964844 105.132812 177.460938 105.132812 177.460938 101.472656 Z M 177.460938 101.472656 "/>
<path style=" stroke:none;fill-rule:evenodd;fill:rgb(0%,0%,0%);fill-opacity:1;" d="M 104.21875 101.472656 C 104.21875 97.808594 98.722656 97.808594 98.722656 101.472656 C 98.722656 105.132812 104.21875 105.132812 104.21875 101.472656 Z M 104.21875 101.472656 "/>
<path style=" stroke:none;fill-rule:evenodd;fill:rgb(0%,0%,0%);fill-opacity:1;" d="M 55.390625 101.472656 C 55.390625 97.808594 49.894531 97.808594 49.894531 101.472656 C 49.894531 105.132812 55.390625 105.132812 55.390625 101.472656 Z M 55.390625 101.472656 "/>
<path style=" stroke:none;fill-rule:evenodd;fill:rgb(0%,0%,0%);fill-opacity:1;" d="M 6.5625 101.472656 C 6.5625 97.808594 1.066406 97.808594 1.066406 101.472656 C 1.066406 105.132812 6.5625 105.132812 6.5625 101.472656 Z M 6.5625 101.472656 "/>
<path style=" stroke:none;fill-rule:evenodd;fill:rgb(0%,0%,0%);fill-opacity:1;" d="M 153.046875 3.816406 C 153.046875 0.152344 147.550781 0.152344 147.550781 3.816406 C 147.550781 7.476562 153.046875 7.476562 153.046875 3.816406 Z M 153.046875 3.816406 "/>
<path style=" stroke:none;fill-rule:evenodd;fill:rgb(0%,0%,0%);fill-opacity:1;" d="M 299.53125 150.300781 C 299.53125 146.636719 294.035156 146.636719 294.035156 150.300781 C 294.035156 153.960938 299.53125 153.960938 299.53125 150.300781 Z M 299.53125 150.300781 "/>
<path style=" stroke:none;fill-rule:evenodd;fill:rgb(0%,0%,0%);fill-opacity:1;" d="M 348.359375 150.300781 C 348.359375 146.636719 342.863281 146.636719 342.863281 150.300781 C 342.863281 153.960938 348.359375 153.960938 348.359375 150.300781 Z M 348.359375 150.300781 "/>
<path style=" stroke:none;fill-rule:evenodd;fill:rgb(0%,0%,0%);fill-opacity:1;" d="M 153.046875 150.300781 C 153.046875 146.636719 147.550781 146.636719 147.550781 150.300781 C 147.550781 153.960938 153.046875 153.960938 153.046875 150.300781 Z M 153.046875 150.300781 "/>
<path style=" stroke:none;fill-rule:evenodd;fill:rgb(0%,0%,0%);fill-opacity:1;" d="M 201.875 150.300781 C 201.875 146.636719 196.378906 146.636719 196.378906 150.300781 C 196.378906 153.960938 201.875 153.960938 201.875 150.300781 Z M 201.875 150.300781 "/>
<path style="fill:none;stroke-width:0.4;stroke-linecap:butt;stroke-linejoin:round;stroke:rgb(0%,0%,0%);stroke-opacity:1;stroke-miterlimit:10;" d="M 256.001278 783.998876 L 192.001175 751.998825 L 160.001124 719.998773 L 192.001175 751.998825 L 192.001175 719.998773 L 192.001175 751.998825 L 224.001227 719.998773 " transform="matrix(1.525876,0,0,-1.525876,-240.325543,1200.101836)"/>
<path style="fill:none;stroke-width:0.4;stroke-linecap:butt;stroke-linejoin:round;stroke:rgb(0%,0%,0%);stroke-opacity:1;stroke-miterlimit:10;" d="M 256.001278 783.998876 L 256.001278 751.998825 " transform="matrix(1.525876,0,0,-1.525876,-240.325543,1200.101836)"/>
<path style="fill:none;stroke-width:0.4;stroke-linecap:butt;stroke-linejoin:round;stroke:rgb(0%,0%,0%);stroke-opacity:1;stroke-miterlimit:10;" d="M 256.001278 783.998876 L 319.99882 751.998825 L 271.998744 719.998773 L 256.001278 687.998722 L 271.998744 719.998773 L 287.998769 687.998722 L 271.998744 719.998773 " transform="matrix(1.525876,0,0,-1.525876,-240.325543,1200.101836)"/>
<path style="fill:none;stroke-width:0.4;stroke-linecap:butt;stroke-linejoin:round;stroke:rgb(0%,0%,0%);stroke-opacity:1;stroke-miterlimit:10;" d="M 319.99882 751.998825 L 303.998795 719.998773 L 319.99882 751.998825 L 335.998846 719.998773 L 319.99882 751.998825 L 367.998897 719.998773 " transform="matrix(1.525876,0,0,-1.525876,-240.325543,1200.101836)"/>
<path style="fill:none;stroke-width:0.4;stroke-linecap:butt;stroke-linejoin:round;stroke:rgb(0%,0%,0%);stroke-opacity:1;stroke-miterlimit:10;" d="M 367.998897 719.998773 L 351.998872 687.998722 " transform="matrix(1.525876,0,0,-1.525876,-240.325543,1200.101836)"/>
<path style="fill:none;stroke-width:0.4;stroke-linecap:butt;stroke-linejoin:round;stroke:rgb(0%,0%,0%);stroke-opacity:1;stroke-miterlimit:10;" d="M 367.998897 719.998773 L 383.998923 687.998722 " transform="matrix(1.525876,0,0,-1.525876,-240.325543,1200.101836)"/>
<path style=" stroke:none;fill-rule:evenodd;fill:rgb(0%,0%,0%);fill-opacity:1;" d="M 177.460938 150.300781 C 177.460938 146.636719 171.964844 146.636719 171.964844 150.300781 C 171.964844 153.960938 177.460938 153.960938 177.460938 150.300781 Z M 177.460938 150.300781 "/>
<path style="fill:none;stroke-width:0.4;stroke-linecap:butt;stroke-linejoin:round;stroke:rgb(0%,0%,0%);stroke-opacity:1;stroke-miterlimit:10;" d="M 271.998744 719.998773 L 271.998744 687.998722 " transform="matrix(1.525876,0,0,-1.525876,-240.325543,1200.101836)"/>
</g>
</svg>
