<?xml version="1.0" encoding="UTF-8"?>
<svg xmlns="http://www.w3.org/2000/svg" xmlns:xlink="http://www.w3.org/1999/xlink" width="428pt" height="379pt" viewBox="0 0 428 379" version="1.1">
<defs>
<g>
<symbol overflow="visible" id="glyph0-0">
<path style="stroke:none;" d=""/>
</symbol>
<symbol overflow="visible" id="glyph0-1">
<path style="stroke:none;" d="M 11.796875 -28.328125 C 11.796875 -29.25 11.75 -29.296875 11.125 -29.296875 C 9.390625 -27.21875 6.78125 -26.546875 4.296875 -26.46875 C 4.171875 -26.46875 3.9375 -26.46875 3.90625 -26.375 C 3.859375 -26.28125 3.859375 -26.203125 3.859375 -25.265625 C 5.234375 -25.265625 7.53125 -25.53125 9.3125 -26.59375 L 9.3125 -3.234375 C 9.3125 -1.6875 9.21875 -1.15625 5.40625 -1.15625 L 4.078125 -1.15625 L 4.078125 0 C 6.203125 -0.046875 8.421875 -0.09375 10.546875 -0.09375 C 12.671875 -0.09375 14.890625 -0.046875 17.015625 0 L 17.015625 -1.15625 L 15.6875 -1.15625 C 11.875 -1.15625 11.796875 -1.640625 11.796875 -3.234375 Z M 11.796875 -28.328125 "/>
</symbol>
<symbol overflow="visible" id="glyph0-2">
<path style="stroke:none;" d="M 18.484375 -6.875 L 17.6875 -6.875 C 17.25 -3.71875 16.890625 -3.1875 16.71875 -2.921875 C 16.484375 -2.578125 13.296875 -2.578125 12.671875 -2.578125 L 4.171875 -2.578125 C 5.765625 -4.296875 8.859375 -7.453125 12.640625 -11.078125 C 15.34375 -13.65625 18.484375 -16.671875 18.484375 -21.0625 C 18.484375 -26.28125 14.3125 -29.296875 9.65625 -29.296875 C 4.78125 -29.296875 1.8125 -25 1.8125 -21.015625 C 1.8125 -19.28125 3.109375 -19.0625 3.640625 -19.0625 C 4.078125 -19.0625 5.40625 -19.328125 5.40625 -20.875 C 5.40625 -22.25 4.25 -22.65625 3.640625 -22.65625 C 3.375 -22.65625 3.109375 -22.609375 2.921875 -22.515625 C 3.765625 -26.28125 6.34375 -28.140625 9.046875 -28.140625 C 12.90625 -28.140625 15.421875 -25.09375 15.421875 -21.0625 C 15.421875 -17.203125 13.171875 -13.875 10.640625 -11 L 1.8125 -1.015625 L 1.8125 0 L 17.421875 0 Z M 18.484375 -6.875 "/>
</symbol>
<symbol overflow="visible" id="glyph0-3">
<path style="stroke:none;" d="M 9.796875 -15.078125 C 13.734375 -15.078125 15.46875 -11.65625 15.46875 -7.71875 C 15.46875 -2.390625 12.640625 -0.359375 10.0625 -0.359375 C 7.71875 -0.359375 3.90625 -1.5 2.703125 -4.921875 C 2.921875 -4.828125 3.140625 -4.828125 3.375 -4.828125 C 4.4375 -4.828125 5.234375 -5.546875 5.234375 -6.6875 C 5.234375 -7.984375 4.25 -8.5625 3.375 -8.5625 C 2.609375 -8.5625 1.46875 -8.203125 1.46875 -6.5625 C 1.46875 -2.484375 5.453125 0.703125 10.15625 0.703125 C 15.078125 0.703125 18.84375 -3.140625 18.84375 -7.671875 C 18.84375 -11.96875 15.296875 -15.078125 11.078125 -15.5625 C 14.453125 -16.265625 17.6875 -19.28125 17.6875 -23.3125 C 17.6875 -26.78125 14.1875 -29.296875 10.203125 -29.296875 C 6.15625 -29.296875 2.609375 -26.8125 2.609375 -23.265625 C 2.609375 -21.71875 3.765625 -21.453125 4.34375 -21.453125 C 5.28125 -21.453125 6.078125 -22.03125 6.078125 -23.1875 C 6.078125 -24.34375 5.28125 -24.90625 4.34375 -24.90625 C 4.171875 -24.90625 3.9375 -24.90625 3.765625 -24.828125 C 5.046875 -27.75 8.5625 -28.28125 10.109375 -28.28125 C 11.65625 -28.28125 14.578125 -27.53125 14.578125 -23.265625 C 14.578125 -22.03125 14.40625 -19.8125 12.90625 -17.859375 C 11.5625 -16.140625 10.0625 -16.046875 8.59375 -15.90625 C 8.375 -15.90625 7.359375 -15.828125 7.1875 -15.828125 C 6.875 -15.78125 6.6875 -15.734375 6.6875 -15.421875 C 6.6875 -15.109375 6.734375 -15.078125 7.625 -15.078125 Z M 9.796875 -15.078125 "/>
</symbol>
<symbol overflow="visible" id="glyph0-4">
<path style="stroke:none;" d="M 14.890625 -28.6875 C 14.890625 -29.609375 14.84375 -29.65625 14.046875 -29.65625 L 0.890625 -8.6875 L 0.890625 -7.53125 L 12.328125 -7.53125 L 12.328125 -3.1875 C 12.328125 -1.59375 12.234375 -1.15625 9.125 -1.15625 L 8.296875 -1.15625 L 8.296875 0 C 9.703125 -0.09375 12.109375 -0.09375 13.609375 -0.09375 C 15.109375 -0.09375 17.515625 -0.09375 18.921875 0 L 18.921875 -1.15625 L 18.078125 -1.15625 C 14.984375 -1.15625 14.890625 -1.59375 14.890625 -3.1875 L 14.890625 -7.53125 L 19.421875 -7.53125 L 19.421875 -8.6875 L 14.890625 -8.6875 Z M 12.453125 -25.75 L 12.453125 -8.6875 L 1.765625 -8.6875 Z M 12.453125 -25.75 "/>
</symbol>
<symbol overflow="visible" id="glyph0-5">
<path style="stroke:none;" d="M 5.046875 -25.9375 C 5.5 -25.75 7.3125 -25.171875 9.171875 -25.171875 C 13.296875 -25.171875 15.5625 -27.390625 16.84375 -28.6875 C 16.84375 -29.03125 16.84375 -29.25 16.578125 -29.25 C 16.53125 -29.25 16.453125 -29.25 16.09375 -29.078125 C 14.546875 -28.421875 12.71875 -27.875 10.5 -27.875 C 9.171875 -27.875 7.1875 -28.0625 5.015625 -29.03125 C 4.515625 -29.25 4.4375 -29.25 4.390625 -29.25 C 4.171875 -29.25 4.125 -29.21875 4.125 -28.328125 L 4.125 -15.46875 C 4.125 -14.671875 4.125 -14.453125 4.5625 -14.453125 C 4.78125 -14.453125 4.875 -14.546875 5.09375 -14.84375 C 6.515625 -16.84375 8.46875 -17.6875 10.6875 -17.6875 C 12.234375 -17.6875 15.5625 -16.71875 15.5625 -9.125 C 15.5625 -7.71875 15.5625 -5.140625 14.234375 -3.109375 C 13.125 -1.28125 11.390625 -0.359375 9.484375 -0.359375 C 6.5625 -0.359375 3.59375 -2.390625 2.796875 -5.8125 C 2.96875 -5.765625 3.328125 -5.671875 3.5 -5.671875 C 4.078125 -5.671875 5.1875 -5.984375 5.1875 -7.359375 C 5.1875 -8.5625 4.34375 -9.046875 3.5 -9.046875 C 2.484375 -9.046875 1.8125 -8.421875 1.8125 -7.1875 C 1.8125 -3.328125 4.875 0.703125 9.578125 0.703125 C 14.140625 0.703125 18.484375 -3.234375 18.484375 -8.953125 C 18.484375 -14.28125 15.03125 -18.390625 10.734375 -18.390625 C 8.46875 -18.390625 6.5625 -17.546875 5.046875 -15.953125 Z M 5.046875 -25.9375 "/>
</symbol>
<symbol overflow="visible" id="glyph0-6">
<path style="stroke:none;" d="M 4.703125 -15.296875 C 4.703125 -25.890625 9.65625 -28.28125 12.546875 -28.28125 C 13.46875 -28.28125 15.734375 -28.109375 16.625 -26.375 C 15.90625 -26.375 14.578125 -26.375 14.578125 -24.828125 C 14.578125 -23.625 15.5625 -23.234375 16.1875 -23.234375 C 16.578125 -23.234375 17.78125 -23.40625 17.78125 -24.90625 C 17.78125 -27.703125 15.5625 -29.296875 12.5 -29.296875 C 7.21875 -29.296875 1.6875 -23.796875 1.6875 -14 C 1.6875 -1.953125 6.6875 0.703125 10.234375 0.703125 C 14.546875 0.703125 18.625 -3.140625 18.625 -9.09375 C 18.625 -14.625 15.03125 -18.65625 10.5 -18.65625 C 7.796875 -18.65625 5.8125 -16.890625 4.703125 -13.78125 Z M 10.234375 -0.359375 C 4.78125 -0.359375 4.78125 -8.515625 4.78125 -10.15625 C 4.78125 -13.34375 6.296875 -17.953125 10.421875 -17.953125 C 11.171875 -17.953125 13.34375 -17.953125 14.8125 -14.890625 C 15.609375 -13.171875 15.609375 -11.34375 15.609375 -9.125 C 15.609375 -6.734375 15.609375 -4.96875 14.671875 -3.1875 C 13.703125 -1.375 12.28125 -0.359375 10.234375 -0.359375 Z M 10.234375 -0.359375 "/>
</symbol>
<symbol overflow="visible" id="glyph0-7">
<path style="stroke:none;" d="M 19.984375 -27.609375 L 19.984375 -28.59375 L 9.578125 -28.59375 C 4.390625 -28.59375 4.296875 -29.171875 4.125 -30.015625 L 3.328125 -30.015625 L 2.046875 -21.71875 L 2.84375 -21.71875 C 2.96875 -22.5625 3.28125 -24.828125 3.8125 -25.671875 C 4.078125 -26.015625 7.359375 -26.015625 8.109375 -26.015625 L 17.859375 -26.015625 L 12.9375 -18.703125 C 9.65625 -13.78125 7.40625 -7.140625 7.40625 -1.328125 C 7.40625 -0.796875 7.40625 0.703125 9 0.703125 C 10.59375 0.703125 10.59375 -0.796875 10.59375 -1.375 L 10.59375 -3.40625 C 10.59375 -10.6875 11.828125 -15.46875 13.875 -18.53125 Z M 19.984375 -27.609375 "/>
</symbol>
<symbol overflow="visible" id="glyph0-8">
<path style="stroke:none;" d="M 12.0625 -15.953125 C 14.84375 -17.375 17.6875 -19.5 17.6875 -22.921875 C 17.6875 -26.953125 13.78125 -29.296875 10.203125 -29.296875 C 6.15625 -29.296875 2.609375 -26.375 2.609375 -22.34375 C 2.609375 -21.234375 2.875 -19.328125 4.609375 -17.640625 C 5.046875 -17.203125 6.921875 -15.875 8.109375 -15.03125 C 6.125 -14 1.46875 -11.5625 1.46875 -6.6875 C 1.46875 -2.125 5.8125 0.703125 10.109375 0.703125 C 14.84375 0.703125 18.84375 -2.703125 18.84375 -7.21875 C 18.84375 -11.265625 16.140625 -13.125 14.359375 -14.3125 Z M 6.25 -19.859375 C 5.890625 -20.078125 4.125 -21.453125 4.125 -23.53125 C 4.125 -26.25 6.921875 -28.28125 10.109375 -28.28125 C 13.609375 -28.28125 16.1875 -25.796875 16.1875 -22.921875 C 16.1875 -18.796875 11.5625 -16.453125 11.34375 -16.453125 C 11.296875 -16.453125 11.265625 -16.453125 10.90625 -16.71875 Z M 14.40625 -10.765625 C 15.078125 -10.28125 17.203125 -8.828125 17.203125 -6.125 C 17.203125 -2.84375 13.921875 -0.359375 10.203125 -0.359375 C 6.15625 -0.359375 3.109375 -3.234375 3.109375 -6.734375 C 3.109375 -10.234375 5.8125 -13.171875 8.859375 -14.546875 Z M 14.40625 -10.765625 "/>
</symbol>
<symbol overflow="visible" id="glyph0-9">
<path style="stroke:none;" d="M 15.609375 -13.125 C 15.609375 -3.375 11.5625 -0.359375 8.25 -0.359375 C 7.21875 -0.359375 4.75 -0.484375 3.71875 -2.21875 C 4.875 -2.046875 5.71875 -2.65625 5.71875 -3.765625 C 5.71875 -4.96875 4.75 -5.359375 4.125 -5.359375 C 3.71875 -5.359375 2.53125 -5.1875 2.53125 -3.671875 C 2.53125 -0.671875 5.140625 0.703125 8.328125 0.703125 C 13.4375 0.703125 18.625 -4.875 18.625 -14.625 C 18.625 -26.78125 13.65625 -29.296875 10.28125 -29.296875 C 5.890625 -29.296875 1.6875 -25.4375 1.6875 -19.5 C 1.6875 -14 5.28125 -9.921875 9.796875 -9.921875 C 13.515625 -9.921875 15.15625 -13.390625 15.609375 -14.84375 Z M 9.890625 -10.640625 C 8.6875 -10.640625 7 -10.859375 5.625 -13.515625 C 4.703125 -15.25 4.703125 -17.28125 4.703125 -19.453125 C 4.703125 -22.078125 4.703125 -23.890625 5.9375 -25.84375 C 6.5625 -26.78125 7.71875 -28.28125 10.28125 -28.28125 C 15.515625 -28.28125 15.515625 -20.265625 15.515625 -18.484375 C 15.515625 -15.34375 14.09375 -10.640625 9.890625 -10.640625 Z M 9.890625 -10.640625 "/>
</symbol>
<symbol overflow="visible" id="glyph0-10">
<path style="stroke:none;" d="M 18.625 -14.234375 C 18.625 -16.9375 18.578125 -21.546875 16.71875 -25.09375 C 15.078125 -28.1875 12.453125 -29.296875 10.15625 -29.296875 C 8.015625 -29.296875 5.3125 -28.328125 3.640625 -25.140625 C 1.859375 -21.8125 1.6875 -17.6875 1.6875 -14.234375 C 1.6875 -11.703125 1.734375 -7.84375 3.109375 -4.484375 C 5.015625 0.09375 8.421875 0.703125 10.15625 0.703125 C 12.1875 0.703125 15.296875 -0.140625 17.109375 -4.34375 C 18.4375 -7.40625 18.625 -11 18.625 -14.234375 Z M 10.15625 0 C 7.3125 0 5.625 -2.4375 5.015625 -5.8125 C 4.515625 -8.421875 4.515625 -12.234375 4.515625 -14.71875 C 4.515625 -18.125 4.515625 -20.96875 5.09375 -23.671875 C 5.9375 -27.4375 8.421875 -28.59375 10.15625 -28.59375 C 11.96875 -28.59375 14.3125 -27.390625 15.15625 -23.765625 C 15.734375 -21.234375 15.78125 -18.265625 15.78125 -14.71875 C 15.78125 -11.828125 15.78125 -8.296875 15.25 -5.671875 C 14.3125 -0.84375 11.703125 0 10.15625 0 Z M 10.15625 0 "/>
</symbol>
</g>
</defs>
<g id="surface2934">
<g style="fill:rgb(0%,0%,0%);fill-opacity:1;">
  <use xlink:href="#glyph0-1" x="303.011912" y="159.974632"/>
</g>
<g style="fill:rgb(0%,0%,0%);fill-opacity:1;">
  <use xlink:href="#glyph0-2" x="2.575327" y="376.000764"/>
</g>
<g style="fill:rgb(0%,0%,0%);fill-opacity:1;">
  <use xlink:href="#glyph0-3" x="224.601459" y="37.358953"/>
</g>
<g style="fill:rgb(0%,0%,0%);fill-opacity:1;">
  <use xlink:href="#glyph0-4" x="161.396232" y="199.179859"/>
</g>
<g style="fill:rgb(0%,0%,0%);fill-opacity:1;">
  <use xlink:href="#glyph0-5" x="127.191006" y="31.153727"/>
</g>
<g style="fill:rgb(0%,0%,0%);fill-opacity:1;">
  <use xlink:href="#glyph0-6" x="293.217138" y="308.385085"/>
</g>
<g style="fill:rgb(0%,0%,0%);fill-opacity:1;">
  <use xlink:href="#glyph0-7" x="373.422365" y="334.795538"/>
</g>
<g style="fill:rgb(0%,0%,0%);fill-opacity:1;">
  <use xlink:href="#glyph0-8" x="2.575327" y="128.769406"/>
</g>
<g style="fill:rgb(0%,0%,0%);fill-opacity:1;">
  <use xlink:href="#glyph0-9" x="2.575327" y="211.179859"/>
</g>
<g style="fill:rgb(0%,0%,0%);fill-opacity:1;">
  <use xlink:href="#glyph0-1" x="167.396232" y="376.000764"/>
  <use xlink:href="#glyph0-10" x="187.70179" y="376.000764"/>
</g>
<path style="fill:none;stroke-width:0.4;stroke-linecap:butt;stroke-linejoin:round;stroke:rgb(0%,0%,0%);stroke-opacity:1;stroke-miterlimit:10;" d="M 303.999925 703.99925 L 272.00004 751.999836 L 240.000155 751.999836 L 208.000271 719.999951 " transform="matrix(2.575327,0,0,-2.575327,-491.887391,1983.004596)"/>
<path style="fill:none;stroke-width:0.4;stroke-linecap:butt;stroke-linejoin:round;stroke:rgb(0%,0%,0%);stroke-opacity:1;stroke-miterlimit:10;" d="M 255.999339 688.000066 L 303.999925 671.999366 L 335.99981 656.000182 " transform="matrix(2.575327,0,0,-2.575327,-491.887391,1983.004596)"/>
<path style="fill:none;stroke-width:0.4;stroke-linecap:butt;stroke-linejoin:round;stroke:rgb(0%,0%,0%);stroke-opacity:1;stroke-miterlimit:10;" d="M 303.999925 671.999366 L 272.00004 639.999481 " transform="matrix(2.575327,0,0,-2.575327,-491.887391,1983.004596)"/>
<path style="fill:none;stroke-width:0.4;stroke-linecap:butt;stroke-linejoin:round;stroke:rgb(0%,0%,0%);stroke-opacity:1;stroke-miterlimit:10;" d="M 303.999925 671.999366 L 335.99981 719.999951 " transform="matrix(2.575327,0,0,-2.575327,-491.887391,1983.004596)"/>
<path style="fill:none;stroke-width:0.4;stroke-linecap:butt;stroke-linejoin:round;stroke:rgb(0%,0%,0%);stroke-opacity:1;stroke-miterlimit:10;" d="M 303.999925 671.999366 L 303.999925 703.99925 " transform="matrix(2.575327,0,0,-2.575327,-491.887391,1983.004596)"/>
<path style="fill:none;stroke-width:0.4;stroke-linecap:butt;stroke-linejoin:round;stroke:rgb(0%,0%,0%);stroke-opacity:1;stroke-miterlimit:10;" d="M 208.000271 639.999481 L 255.999339 688.000066 " transform="matrix(2.575327,0,0,-2.575327,-491.887391,1983.004596)"/>
<path style="fill:none;stroke-width:0.4;stroke-linecap:butt;stroke-linejoin:round;stroke:rgb(0%,0%,0%);stroke-opacity:1;stroke-miterlimit:10;" d="M 208.000271 688.000066 L 255.999339 688.000066 " transform="matrix(2.575327,0,0,-2.575327,-491.887391,1983.004596)"/>
<path style=" stroke:none;fill-rule:evenodd;fill:rgb(0%,0%,0%);fill-opacity:1;" d="M 295.648438 252.386719 C 295.648438 246.203125 286.375 246.203125 286.375 252.386719 C 286.375 258.566406 295.648438 258.566406 295.648438 252.386719 Z M 295.648438 252.386719 "/>
<path style=" stroke:none;fill-rule:evenodd;fill:rgb(0%,0%,0%);fill-opacity:1;" d="M 378.058594 293.589844 C 378.058594 287.410156 368.785156 287.410156 368.785156 293.589844 C 368.785156 299.769531 378.058594 299.769531 378.058594 293.589844 Z M 378.058594 293.589844 "/>
<path style=" stroke:none;fill-rule:evenodd;fill:rgb(0%,0%,0%);fill-opacity:1;" d="M 213.238281 334.796875 C 213.238281 328.613281 203.964844 328.613281 203.964844 334.796875 C 203.964844 340.976562 213.238281 340.976562 213.238281 334.796875 Z M 213.238281 334.796875 "/>
<path style=" stroke:none;fill-rule:evenodd;fill:rgb(0%,0%,0%);fill-opacity:1;" d="M 295.648438 169.976562 C 295.648438 163.792969 286.375 163.792969 286.375 169.976562 C 286.375 176.15625 295.648438 176.15625 295.648438 169.976562 Z M 295.648438 169.976562 "/>
<path style=" stroke:none;fill-rule:evenodd;fill:rgb(0%,0%,0%);fill-opacity:1;" d="M 213.238281 46.359375 C 213.238281 40.179688 203.964844 40.179688 203.964844 46.359375 C 203.964844 52.539062 213.238281 52.539062 213.238281 46.359375 Z M 213.238281 46.359375 "/>
<path style=" stroke:none;fill-rule:evenodd;fill:rgb(0%,0%,0%);fill-opacity:1;" d="M 130.828125 46.359375 C 130.828125 40.179688 121.554688 40.179688 121.554688 46.359375 C 121.554688 52.539062 130.828125 52.539062 130.828125 46.359375 Z M 130.828125 46.359375 "/>
<path style=" stroke:none;fill-rule:evenodd;fill:rgb(0%,0%,0%);fill-opacity:1;" d="M 48.417969 128.769531 C 48.417969 122.589844 39.144531 122.589844 39.144531 128.769531 C 39.144531 134.949219 48.417969 134.949219 48.417969 128.769531 Z M 48.417969 128.769531 "/>
<path style=" stroke:none;fill-rule:evenodd;fill:rgb(0%,0%,0%);fill-opacity:1;" d="M 48.417969 211.179688 C 48.417969 205 39.144531 205 39.144531 211.179688 C 39.144531 217.359375 48.417969 217.359375 48.417969 211.179688 Z M 48.417969 211.179688 "/>
<path style=" stroke:none;fill-rule:evenodd;fill:rgb(0%,0%,0%);fill-opacity:1;" d="M 48.417969 334.796875 C 48.417969 328.613281 39.144531 328.613281 39.144531 334.796875 C 39.144531 340.976562 48.417969 340.976562 48.417969 334.796875 Z M 48.417969 334.796875 "/>
<path style=" stroke:none;fill-rule:evenodd;fill:rgb(0%,0%,0%);fill-opacity:1;" d="M 172.03125 211.179688 C 172.03125 205 162.761719 205 162.761719 211.179688 C 162.761719 217.359375 172.03125 217.359375 172.03125 211.179688 Z M 172.03125 211.179688 "/>
<path style=" stroke:none;fill-rule:evenodd;fill:rgb(0%,0%,0%);fill-opacity:1;" d="M 378.058594 128.769531 C 378.058594 122.589844 368.785156 122.589844 368.785156 128.769531 C 368.785156 134.949219 378.058594 134.949219 378.058594 128.769531 Z M 378.058594 128.769531 "/>
<g style="fill:rgb(0%,0%,0%);fill-opacity:1;">
  <use xlink:href="#glyph0-1" x="384.58148" y="118.19777"/>
  <use xlink:href="#glyph0-1" x="404.887037" y="118.19777"/>
</g>
</g>
</svg>
